<?xml version="1.0" encoding="UTF-8" standalone="no"?>
<!-- Created with Inkscape (http://www.inkscape.org/) -->

<svg
   xmlns:dc="http://purl.org/dc/elements/1.1/"
   xmlns:cc="http://creativecommons.org/ns#"
   xmlns:rdf="http://www.w3.org/1999/02/22-rdf-syntax-ns#"
   xmlns:svg="http://www.w3.org/2000/svg"
   xmlns="http://www.w3.org/2000/svg"
   xmlns:sodipodi="http://sodipodi.sourceforge.net/DTD/sodipodi-0.dtd"
   xmlns:inkscape="http://www.inkscape.org/namespaces/inkscape"
   width="210mm"
   height="297mm"
   viewBox="0 0 210 297"
   version="1.1"
   id="svg8"
   inkscape:version="0.92.4 5da689c313, 2019-01-14"
   sodipodi:docname="topología.svg">
  <defs
     id="defs2" />
  <sodipodi:namedview
     id="base"
     pagecolor="#ffffff"
     bordercolor="#666666"
     borderopacity="1.0"
     inkscape:pageopacity="0.0"
     inkscape:pageshadow="2"
     inkscape:zoom="0.45246562"
     inkscape:cx="-113.31073"
     inkscape:cy="13.153283"
     inkscape:document-units="mm"
     inkscape:current-layer="layer1"
     showgrid="false"
     inkscape:window-width="1920"
     inkscape:window-height="1017"
     inkscape:window-x="0"
     inkscape:window-y="27"
     inkscape:window-maximized="1" />
  <metadata
     id="metadata5">
    <rdf:RDF>
      <cc:Work
         rdf:about="">
        <dc:format>image/svg+xml</dc:format>
        <dc:type
           rdf:resource="http://purl.org/dc/dcmitype/StillImage" />
        <dc:title />
      </cc:Work>
    </rdf:RDF>
  </metadata>
  <g
     inkscape:label="Layer 1"
     inkscape:groupmode="layer"
     id="layer1">
    <g
       id="g4669"
       transform="matrix(0.51724138,0,0,0.51724138,90.5,252)"
       inkscape:export-xdpi="1000"
       inkscape:export-ydpi="1000">
      <path
         id="path4614"
         d="M 50.688,48.222 C 55.232,43.101 58,36.369 58,29 58,21.333 55.004,14.357 50.128,9.166 c 0,0 0,-0.001 0,-0.001 C 50.124,9.159 50.118,9.157 50.115,9.152 45.036,3.753 37.92,0.297 30.005,0.026 L 30.004,0.025 29.439,0.01 C 29.293,0.005 29.147,0 29,0 28.853,0 28.707,0.005 28.561,0.01 L 27.998,0.025 27.997,0.026 C 20.082,0.297 12.966,3.753 7.887,9.152 7.883,9.157 7.877,9.159 7.874,9.165 c 0,0 0,0.001 -10e-4,0.002 C 2.996,14.357 0,21.333 0,29 c 0,7.369 2.768,14.101 7.312,19.222 0.006,0.009 0.006,0.019 0.013,0.028 0.018,0.025 0.044,0.037 0.063,0.06 5.106,5.708 12.432,9.385 20.608,9.665 l 0.001,10e-4 0.563,0.015 C 28.707,57.995 28.853,58 29,58 c 0.147,0 0.293,-0.005 0.439,-0.01 l 0.563,-0.015 0.001,-0.001 c 8.185,-0.281 15.519,-3.965 20.625,-9.685 0.013,-0.017 0.034,-0.022 0.046,-0.04 0.008,-0.008 0.008,-0.018 0.014,-0.027 z M 2.025,30 h 12.003 c 0.113,4.239 0.941,8.358 2.415,12.217 -2.844,1.029 -5.563,2.409 -8.111,4.131 C 4.585,41.891 2.253,36.21 2.025,30 Z M 8.878,11.023 c 2.488,1.618 5.137,2.914 7.9,3.882 C 15.086,19.012 14.15,23.44 14.028,28 H 2.025 C 2.264,21.493 4.812,15.568 8.878,11.023 Z M 55.975,28 H 43.972 c -0.122,-4.56 -1.058,-8.988 -2.75,-13.095 2.763,-0.968 5.412,-2.264 7.9,-3.882 4.066,4.545 6.614,10.47 6.853,16.977 z M 28,14.963 C 25.109,14.881 22.271,14.45 19.529,13.68 21.556,9.522 24.418,5.769 28,2.644 Z m 0,2 V 28 H 16.028 c 0.123,-4.348 1.035,-8.565 2.666,-12.475 3.006,0.871 6.127,1.353 9.306,1.438 z m 2,0 c 3.179,-0.085 6.3,-0.566 9.307,-1.438 1.631,3.91 2.543,8.127 2.666,12.475 H 30 Z m 0,-2 V 2.644 c 3.582,3.125 6.444,6.878 8.471,11.036 -2.742,0.77 -5.58,1.201 -8.471,1.283 z M 40.409,13.072 C 38.488,9.047 35.822,5.38 32.521,2.237 c 5.856,0.766 11.125,3.414 15.183,7.318 -2.304,1.462 -4.748,2.638 -7.295,3.517 z m -22.818,0 C 15.044,12.193 12.6,11.017 10.297,9.555 14.354,5.651 19.624,3.003 25.48,2.237 22.178,5.38 19.512,9.047 17.591,13.072 Z M 16.028,30 H 28 v 10.038 c -3.307,0.088 -6.547,0.604 -9.661,1.541 C 16.932,37.924 16.141,34.019 16.028,30 Z M 28,42.038 V 55.356 C 24.166,52.011 21.16,47.947 19.116,43.439 21.983,42.594 24.961,42.124 28,42.038 Z m 2,13.318 V 42.038 c 3.039,0.085 6.017,0.556 8.884,1.4 C 36.84,47.947 33.834,52.011 30,55.356 Z M 30,40.038 V 30 H 41.972 C 41.859,34.019 41.068,37.924 39.66,41.58 36.547,40.642 33.307,40.126 30,40.038 Z M 43.972,30 H 55.975 C 55.747,36.21 53.416,41.891 49.668,46.348 47.12,44.626 44.401,43.246 41.557,42.217 43.032,38.358 43.859,34.239 43.972,30 Z M 9.691,47.846 c 2.366,-1.572 4.885,-2.836 7.517,-3.781 1.945,4.36 4.737,8.333 8.271,11.698 C 19.328,54.958 13.823,52.078 9.691,47.846 Z m 22.83,7.917 c 3.534,-3.364 6.326,-7.337 8.271,-11.698 2.632,0.945 5.15,2.209 7.517,3.781 -4.132,4.232 -9.637,7.112 -15.788,7.917 z"
         inkscape:connector-curvature="0" />
      <g
         id="g4616" />
      <g
         id="g4618" />
      <g
         id="g4620" />
      <g
         id="g4622" />
      <g
         id="g4624" />
      <g
         id="g4626" />
      <g
         id="g4628" />
      <g
         id="g4630" />
      <g
         id="g4632" />
      <g
         id="g4634" />
      <g
         id="g4636" />
      <g
         id="g4638" />
      <g
         id="g4640" />
      <g
         id="g4642" />
      <g
         id="g4644" />
    </g>
    <g
       id="g4729"
       transform="matrix(0.27429568,0,0,0.27429568,9.7030211,248.19844)"
       style="fill:none;fill-opacity:0.78823529;stroke:#000000;stroke-opacity:1"
       inkscape:export-xdpi="1000"
       inkscape:export-ydpi="1000">
      <g
         id="g4673"
         style="fill:none;fill-opacity:0.78823529;stroke:#000000;stroke-opacity:1">
        <path
           id="path4671"
           d="M 25.302,0 H 9.698 C 8.398,0 7.334,1.063 7.334,2.364 V 32.635 C 7.334,33.936 8.398,35 9.698,35 h 15.604 c 1.3,0 2.364,-1.062 2.364,-2.364 V 2.364 C 27.666,1.063 26.602,0 25.302,0 Z M 17.5,33.818 c -0.653,0 -1.182,-0.529 -1.182,-1.183 0,-0.654 0.445709,-0.598961 1.098709,-0.598961 0.653,0 1.265291,-0.05504 1.265291,0.598961 0,0.654 -0.529,1.183 -1.182,1.183 z m 8.521,-3.193 H 8.979 V 3.749 h 17.042 z"
           inkscape:connector-curvature="0"
           style="fill:none;fill-opacity:0.78823529;stroke:#000000;stroke-opacity:1"
           sodipodi:nodetypes="ssssssssssssssccccc" />
      </g>
      <g
         id="g4675"
         style="fill:none;fill-opacity:0.78823529;stroke:#000000;stroke-opacity:1" />
      <g
         id="g4677"
         style="fill:none;fill-opacity:0.78823529;stroke:#000000;stroke-opacity:1" />
      <g
         id="g4679"
         style="fill:none;fill-opacity:0.78823529;stroke:#000000;stroke-opacity:1" />
      <g
         id="g4681"
         style="fill:none;fill-opacity:0.78823529;stroke:#000000;stroke-opacity:1" />
      <g
         id="g4683"
         style="fill:none;fill-opacity:0.78823529;stroke:#000000;stroke-opacity:1" />
      <g
         id="g4685"
         style="fill:none;fill-opacity:0.78823529;stroke:#000000;stroke-opacity:1" />
      <g
         id="g4687"
         style="fill:none;fill-opacity:0.78823529;stroke:#000000;stroke-opacity:1" />
      <g
         id="g4689"
         style="fill:none;fill-opacity:0.78823529;stroke:#000000;stroke-opacity:1" />
      <g
         id="g4691"
         style="fill:none;fill-opacity:0.78823529;stroke:#000000;stroke-opacity:1" />
      <g
         id="g4693"
         style="fill:none;fill-opacity:0.78823529;stroke:#000000;stroke-opacity:1" />
      <g
         id="g4695"
         style="fill:none;fill-opacity:0.78823529;stroke:#000000;stroke-opacity:1" />
      <g
         id="g4697"
         style="fill:none;fill-opacity:0.78823529;stroke:#000000;stroke-opacity:1" />
      <g
         id="g4699"
         style="fill:none;fill-opacity:0.78823529;stroke:#000000;stroke-opacity:1" />
      <g
         id="g4701"
         style="fill:none;fill-opacity:0.78823529;stroke:#000000;stroke-opacity:1" />
      <g
         id="g4703"
         style="fill:none;fill-opacity:0.78823529;stroke:#000000;stroke-opacity:1" />
    </g>
    <circle
       style="opacity:1;fill:none;fill-opacity:0.78823529;stroke:#000000;stroke-width:0.82935005;stroke-linejoin:round;stroke-miterlimit:4;stroke-dasharray:none;stroke-dashoffset:0;stroke-opacity:1;paint-order:stroke fill markers"
       id="path5035"
       cx="30"
       cy="267"
       r="29.585325"
       inkscape:export-xdpi="1000"
       inkscape:export-ydpi="1000" />
    <g
       id="g4729-3"
       transform="matrix(0.27429568,0,0,0.27429568,6.4670311,270.67674)"
       style="fill:none;fill-opacity:0.78823529;stroke:#000000;stroke-opacity:1"
       inkscape:export-xdpi="1000"
       inkscape:export-ydpi="1000">
      <g
         id="g4673-6"
         style="fill:none;fill-opacity:0.78823529;stroke:#000000;stroke-opacity:1">
        <path
           id="path4671-7"
           d="M 25.302,0 H 9.698 C 8.398,0 7.334,1.063 7.334,2.364 V 32.635 C 7.334,33.936 8.398,35 9.698,35 h 15.604 c 1.3,0 2.364,-1.062 2.364,-2.364 V 2.364 C 27.666,1.063 26.602,0 25.302,0 Z M 17.5,33.818 c -0.653,0 -1.182,-0.529 -1.182,-1.183 0,-0.654 0.445709,-0.598961 1.098709,-0.598961 0.653,0 1.265291,-0.05504 1.265291,0.598961 0,0.654 -0.529,1.183 -1.182,1.183 z m 8.521,-3.193 H 8.979 V 3.749 h 17.042 z"
           inkscape:connector-curvature="0"
           style="fill:none;fill-opacity:0.78823529;stroke:#000000;stroke-opacity:1"
           sodipodi:nodetypes="ssssssssssssssccccc" />
      </g>
      <g
         id="g4675-5"
         style="fill:none;fill-opacity:0.78823529;stroke:#000000;stroke-opacity:1" />
      <g
         id="g4677-3"
         style="fill:none;fill-opacity:0.78823529;stroke:#000000;stroke-opacity:1" />
      <g
         id="g4679-5"
         style="fill:none;fill-opacity:0.78823529;stroke:#000000;stroke-opacity:1" />
      <g
         id="g4681-6"
         style="fill:none;fill-opacity:0.78823529;stroke:#000000;stroke-opacity:1" />
      <g
         id="g4683-2"
         style="fill:none;fill-opacity:0.78823529;stroke:#000000;stroke-opacity:1" />
      <g
         id="g4685-9"
         style="fill:none;fill-opacity:0.78823529;stroke:#000000;stroke-opacity:1" />
      <g
         id="g4687-1"
         style="fill:none;fill-opacity:0.78823529;stroke:#000000;stroke-opacity:1" />
      <g
         id="g4689-2"
         style="fill:none;fill-opacity:0.78823529;stroke:#000000;stroke-opacity:1" />
      <g
         id="g4691-7"
         style="fill:none;fill-opacity:0.78823529;stroke:#000000;stroke-opacity:1" />
      <g
         id="g4693-0"
         style="fill:none;fill-opacity:0.78823529;stroke:#000000;stroke-opacity:1" />
      <g
         id="g4695-9"
         style="fill:none;fill-opacity:0.78823529;stroke:#000000;stroke-opacity:1" />
      <g
         id="g4697-3"
         style="fill:none;fill-opacity:0.78823529;stroke:#000000;stroke-opacity:1" />
      <g
         id="g4699-6"
         style="fill:none;fill-opacity:0.78823529;stroke:#000000;stroke-opacity:1" />
      <g
         id="g4701-0"
         style="fill:none;fill-opacity:0.78823529;stroke:#000000;stroke-opacity:1" />
      <g
         id="g4703-6"
         style="fill:none;fill-opacity:0.78823529;stroke:#000000;stroke-opacity:1" />
    </g>
    <g
       id="g4729-3-2"
       transform="matrix(0.27429568,0,0,0.27429568,36.708946,247.2414)"
       style="fill:none;fill-opacity:0.78823529;stroke:#000000;stroke-opacity:1"
       inkscape:export-xdpi="1000"
       inkscape:export-ydpi="1000">
      <g
         id="g4673-6-6"
         style="fill:none;fill-opacity:0.78823529;stroke:#000000;stroke-opacity:1">
        <path
           id="path4671-7-1"
           d="M 25.302,0 H 9.698 C 8.398,0 7.334,1.063 7.334,2.364 V 32.635 C 7.334,33.936 8.398,35 9.698,35 h 15.604 c 1.3,0 2.364,-1.062 2.364,-2.364 V 2.364 C 27.666,1.063 26.602,0 25.302,0 Z M 17.5,33.818 c -0.653,0 -1.182,-0.529 -1.182,-1.183 0,-0.654 0.445709,-0.598961 1.098709,-0.598961 0.653,0 1.265291,-0.05504 1.265291,0.598961 0,0.654 -0.529,1.183 -1.182,1.183 z m 8.521,-3.193 H 8.979 V 3.749 h 17.042 z"
           inkscape:connector-curvature="0"
           style="fill:none;fill-opacity:0.78823529;stroke:#000000;stroke-opacity:1"
           sodipodi:nodetypes="ssssssssssssssccccc" />
      </g>
      <g
         id="g4675-5-8"
         style="fill:none;fill-opacity:0.78823529;stroke:#000000;stroke-opacity:1" />
      <g
         id="g4677-3-7"
         style="fill:none;fill-opacity:0.78823529;stroke:#000000;stroke-opacity:1" />
      <g
         id="g4679-5-9"
         style="fill:none;fill-opacity:0.78823529;stroke:#000000;stroke-opacity:1" />
      <g
         id="g4681-6-2"
         style="fill:none;fill-opacity:0.78823529;stroke:#000000;stroke-opacity:1" />
      <g
         id="g4683-2-0"
         style="fill:none;fill-opacity:0.78823529;stroke:#000000;stroke-opacity:1" />
      <g
         id="g4685-9-2"
         style="fill:none;fill-opacity:0.78823529;stroke:#000000;stroke-opacity:1" />
      <g
         id="g4687-1-3"
         style="fill:none;fill-opacity:0.78823529;stroke:#000000;stroke-opacity:1" />
      <g
         id="g4689-2-7"
         style="fill:none;fill-opacity:0.78823529;stroke:#000000;stroke-opacity:1" />
      <g
         id="g4691-7-5"
         style="fill:none;fill-opacity:0.78823529;stroke:#000000;stroke-opacity:1" />
      <g
         id="g4693-0-9"
         style="fill:none;fill-opacity:0.78823529;stroke:#000000;stroke-opacity:1" />
      <g
         id="g4695-9-2"
         style="fill:none;fill-opacity:0.78823529;stroke:#000000;stroke-opacity:1" />
      <g
         id="g4697-3-2"
         style="fill:none;fill-opacity:0.78823529;stroke:#000000;stroke-opacity:1" />
      <g
         id="g4699-6-8"
         style="fill:none;fill-opacity:0.78823529;stroke:#000000;stroke-opacity:1" />
      <g
         id="g4701-0-9"
         style="fill:none;fill-opacity:0.78823529;stroke:#000000;stroke-opacity:1" />
      <g
         id="g4703-6-7"
         style="fill:none;fill-opacity:0.78823529;stroke:#000000;stroke-opacity:1" />
    </g>
    <g
       id="g4729-3-3"
       transform="matrix(0.27429568,0,0,0.27429568,25.163599,260.94073)"
       style="fill:none;fill-opacity:0.78823529;stroke:#000000;stroke-opacity:1"
       inkscape:export-xdpi="1000"
       inkscape:export-ydpi="1000">
      <g
         id="g4673-6-61"
         style="fill:none;fill-opacity:0.78823529;stroke:#000000;stroke-opacity:1">
        <path
           id="path4671-7-2"
           d="M 25.302,0 H 9.698 C 8.398,0 7.334,1.063 7.334,2.364 V 32.635 C 7.334,33.936 8.398,35 9.698,35 h 15.604 c 1.3,0 2.364,-1.062 2.364,-2.364 V 2.364 C 27.666,1.063 26.602,0 25.302,0 Z M 17.5,33.818 c -0.653,0 -1.182,-0.529 -1.182,-1.183 0,-0.654 0.445709,-0.598961 1.098709,-0.598961 0.653,0 1.265291,-0.05504 1.265291,0.598961 0,0.654 -0.529,1.183 -1.182,1.183 z m 8.521,-3.193 H 8.979 V 3.749 h 17.042 z"
           inkscape:connector-curvature="0"
           style="fill:none;fill-opacity:0.78823529;stroke:#000000;stroke-opacity:1"
           sodipodi:nodetypes="ssssssssssssssccccc" />
      </g>
      <g
         id="g4675-5-9"
         style="fill:none;fill-opacity:0.78823529;stroke:#000000;stroke-opacity:1" />
      <g
         id="g4677-3-3"
         style="fill:none;fill-opacity:0.78823529;stroke:#000000;stroke-opacity:1" />
      <g
         id="g4679-5-1"
         style="fill:none;fill-opacity:0.78823529;stroke:#000000;stroke-opacity:1" />
      <g
         id="g4681-6-9"
         style="fill:none;fill-opacity:0.78823529;stroke:#000000;stroke-opacity:1" />
      <g
         id="g4683-2-4"
         style="fill:none;fill-opacity:0.78823529;stroke:#000000;stroke-opacity:1" />
      <g
         id="g4685-9-7"
         style="fill:none;fill-opacity:0.78823529;stroke:#000000;stroke-opacity:1" />
      <g
         id="g4687-1-8"
         style="fill:none;fill-opacity:0.78823529;stroke:#000000;stroke-opacity:1" />
      <g
         id="g4689-2-4"
         style="fill:none;fill-opacity:0.78823529;stroke:#000000;stroke-opacity:1" />
      <g
         id="g4691-7-50"
         style="fill:none;fill-opacity:0.78823529;stroke:#000000;stroke-opacity:1" />
      <g
         id="g4693-0-3"
         style="fill:none;fill-opacity:0.78823529;stroke:#000000;stroke-opacity:1" />
      <g
         id="g4695-9-6"
         style="fill:none;fill-opacity:0.78823529;stroke:#000000;stroke-opacity:1" />
      <g
         id="g4697-3-1"
         style="fill:none;fill-opacity:0.78823529;stroke:#000000;stroke-opacity:1" />
      <g
         id="g4699-6-0"
         style="fill:none;fill-opacity:0.78823529;stroke:#000000;stroke-opacity:1" />
      <g
         id="g4701-0-6"
         style="fill:none;fill-opacity:0.78823529;stroke:#000000;stroke-opacity:1" />
      <g
         id="g4703-6-3"
         style="fill:none;fill-opacity:0.78823529;stroke:#000000;stroke-opacity:1" />
    </g>
    <g
       id="g4729-3-20"
       transform="matrix(0.27429568,0,0,0.27429568,40.069158,275.50166)"
       style="fill:none;fill-opacity:0.78823529;stroke:#000000;stroke-opacity:1"
       inkscape:export-xdpi="1000"
       inkscape:export-ydpi="1000">
      <g
         id="g4673-6-615"
         style="fill:none;fill-opacity:0.78823529;stroke:#000000;stroke-opacity:1">
        <path
           id="path4671-7-5"
           d="M 25.302,0 H 9.698 C 8.398,0 7.334,1.063 7.334,2.364 V 32.635 C 7.334,33.936 8.398,35 9.698,35 h 15.604 c 1.3,0 2.364,-1.062 2.364,-2.364 V 2.364 C 27.666,1.063 26.602,0 25.302,0 Z M 17.5,33.818 c -0.653,0 -1.182,-0.529 -1.182,-1.183 0,-0.654 0.445709,-0.598961 1.098709,-0.598961 0.653,0 1.265291,-0.05504 1.265291,0.598961 0,0.654 -0.529,1.183 -1.182,1.183 z m 8.521,-3.193 H 8.979 V 3.749 h 17.042 z"
           inkscape:connector-curvature="0"
           style="fill:none;fill-opacity:0.78823529;stroke:#000000;stroke-opacity:1"
           sodipodi:nodetypes="ssssssssssssssccccc" />
      </g>
      <g
         id="g4675-5-4"
         style="fill:none;fill-opacity:0.78823529;stroke:#000000;stroke-opacity:1" />
      <g
         id="g4677-3-76"
         style="fill:none;fill-opacity:0.78823529;stroke:#000000;stroke-opacity:1" />
      <g
         id="g4679-5-5"
         style="fill:none;fill-opacity:0.78823529;stroke:#000000;stroke-opacity:1" />
      <g
         id="g4681-6-6"
         style="fill:none;fill-opacity:0.78823529;stroke:#000000;stroke-opacity:1" />
      <g
         id="g4683-2-9"
         style="fill:none;fill-opacity:0.78823529;stroke:#000000;stroke-opacity:1" />
      <g
         id="g4685-9-3"
         style="fill:none;fill-opacity:0.78823529;stroke:#000000;stroke-opacity:1" />
      <g
         id="g4687-1-7"
         style="fill:none;fill-opacity:0.78823529;stroke:#000000;stroke-opacity:1" />
      <g
         id="g4689-2-45"
         style="fill:none;fill-opacity:0.78823529;stroke:#000000;stroke-opacity:1" />
      <g
         id="g4691-7-2"
         style="fill:none;fill-opacity:0.78823529;stroke:#000000;stroke-opacity:1" />
      <g
         id="g4693-0-5"
         style="fill:none;fill-opacity:0.78823529;stroke:#000000;stroke-opacity:1" />
      <g
         id="g4695-9-4"
         style="fill:none;fill-opacity:0.78823529;stroke:#000000;stroke-opacity:1" />
      <g
         id="g4697-3-7"
         style="fill:none;fill-opacity:0.78823529;stroke:#000000;stroke-opacity:1" />
      <g
         id="g4699-6-4"
         style="fill:none;fill-opacity:0.78823529;stroke:#000000;stroke-opacity:1" />
      <g
         id="g4701-0-4"
         style="fill:none;fill-opacity:0.78823529;stroke:#000000;stroke-opacity:1" />
      <g
         id="g4703-6-30"
         style="fill:none;fill-opacity:0.78823529;stroke:#000000;stroke-opacity:1" />
    </g>
    <g
       id="g4729-3-7"
       transform="matrix(0.27429568,0,0,0.27429568,25.939033,281.44664)"
       style="fill:none;fill-opacity:0.78823529;stroke:#000000;stroke-opacity:1"
       inkscape:export-xdpi="1000"
       inkscape:export-ydpi="1000">
      <g
         id="g4673-6-8"
         style="fill:none;fill-opacity:0.78823529;stroke:#000000;stroke-opacity:1">
        <path
           id="path4671-7-6"
           d="M 25.302,0 H 9.698 C 8.398,0 7.334,1.063 7.334,2.364 V 32.635 C 7.334,33.936 8.398,35 9.698,35 h 15.604 c 1.3,0 2.364,-1.062 2.364,-2.364 V 2.364 C 27.666,1.063 26.602,0 25.302,0 Z M 17.5,33.818 c -0.653,0 -1.182,-0.529 -1.182,-1.183 0,-0.654 0.445709,-0.598961 1.098709,-0.598961 0.653,0 1.265291,-0.05504 1.265291,0.598961 0,0.654 -0.529,1.183 -1.182,1.183 z m 8.521,-3.193 H 8.979 V 3.749 h 17.042 z"
           inkscape:connector-curvature="0"
           style="fill:none;fill-opacity:0.78823529;stroke:#000000;stroke-opacity:1"
           sodipodi:nodetypes="ssssssssssssssccccc" />
      </g>
      <g
         id="g4675-5-88"
         style="fill:none;fill-opacity:0.78823529;stroke:#000000;stroke-opacity:1" />
      <g
         id="g4677-3-4"
         style="fill:none;fill-opacity:0.78823529;stroke:#000000;stroke-opacity:1" />
      <g
         id="g4679-5-3"
         style="fill:none;fill-opacity:0.78823529;stroke:#000000;stroke-opacity:1" />
      <g
         id="g4681-6-1"
         style="fill:none;fill-opacity:0.78823529;stroke:#000000;stroke-opacity:1" />
      <g
         id="g4683-2-49"
         style="fill:none;fill-opacity:0.78823529;stroke:#000000;stroke-opacity:1" />
      <g
         id="g4685-9-20"
         style="fill:none;fill-opacity:0.78823529;stroke:#000000;stroke-opacity:1" />
      <g
         id="g4687-1-6"
         style="fill:none;fill-opacity:0.78823529;stroke:#000000;stroke-opacity:1" />
      <g
         id="g4689-2-8"
         style="fill:none;fill-opacity:0.78823529;stroke:#000000;stroke-opacity:1" />
      <g
         id="g4691-7-9"
         style="fill:none;fill-opacity:0.78823529;stroke:#000000;stroke-opacity:1" />
      <g
         id="g4693-0-2"
         style="fill:none;fill-opacity:0.78823529;stroke:#000000;stroke-opacity:1" />
      <g
         id="g4695-9-66"
         style="fill:none;fill-opacity:0.78823529;stroke:#000000;stroke-opacity:1" />
      <g
         id="g4697-3-4"
         style="fill:none;fill-opacity:0.78823529;stroke:#000000;stroke-opacity:1" />
      <g
         id="g4699-6-9"
         style="fill:none;fill-opacity:0.78823529;stroke:#000000;stroke-opacity:1" />
      <g
         id="g4701-0-5"
         style="fill:none;fill-opacity:0.78823529;stroke:#000000;stroke-opacity:1" />
      <g
         id="g4703-6-0"
         style="fill:none;fill-opacity:0.78823529;stroke:#000000;stroke-opacity:1" />
    </g>
    <g
       id="g5465"
       transform="matrix(0.26458333,0,0,0.26458333,15.757194,42.820371)"
       inkscape:export-xdpi="1000"
       inkscape:export-ydpi="1000">
      <g
         id="g5406">
        <path
           id="path5398"
           d="M 54.615,19.123 C 47.372,11.879 37.725,7.89 27.454,7.89 17.183,7.89 7.537,11.878 0.293,19.123 c -0.391,0.391 -0.391,1.023 0,1.414 0.391,0.391 1.023,0.391 1.414,0 6.866,-6.867 16.01,-10.648 25.747,-10.648 9.737,0 18.881,3.781 25.747,10.647 0.195,0.195 0.451,0.293 0.707,0.293 0.256,0 0.512,-0.098 0.707,-0.293 0.391,-0.39 0.391,-1.023 0,-1.413 z"
           inkscape:connector-curvature="0" />
        <path
           id="path5400"
           d="m 6.171,25 c -0.391,0.391 -0.391,1.023 0,1.414 0.195,0.195 0.451,0.293 0.707,0.293 0.256,0 0.512,-0.098 0.707,-0.293 10.955,-10.956 28.781,-10.956 39.737,0 0.391,0.391 1.023,0.391 1.414,0 0.391,-0.391 0.391,-1.023 0,-1.414 C 37.002,13.266 17.907,13.264 6.171,25 Z"
           inkscape:connector-curvature="0" />
        <path
           id="path5402"
           d="m 27.454,24.508 c -5.825,0 -11.295,2.263 -15.404,6.371 -0.391,0.391 -0.391,1.023 0,1.414 0.391,0.391 1.023,0.391 1.414,0 3.731,-3.73 8.699,-5.785 13.99,-5.785 5.291,0 10.259,2.055 13.99,5.785 0.195,0.195 0.451,0.293 0.707,0.293 0.256,0 0.512,-0.098 0.707,-0.293 0.391,-0.391 0.391,-1.023 0,-1.414 -4.108,-4.108 -9.579,-6.371 -15.404,-6.371 z"
           inkscape:connector-curvature="0" />
        <path
           id="path5404"
           d="m 27.454,33.916 c -3.612,0 -6.551,2.939 -6.551,6.552 0,3.613 2.939,6.552 6.551,6.552 3.613,0 6.552,-2.939 6.552,-6.552 0,-3.613 -2.939,-6.552 -6.552,-6.552 z m 0,11.103 c -2.51,0 -4.551,-2.042 -4.551,-4.552 0,-2.51 2.042,-4.552 4.551,-4.552 2.509,0 4.552,2.042 4.552,4.552 0,2.51 -2.042,4.552 -4.552,4.552 z"
           inkscape:connector-curvature="0" />
      </g>
      <g
         id="g5408" />
      <g
         id="g5410" />
      <g
         id="g5412" />
      <g
         id="g5414" />
      <g
         id="g5416" />
      <g
         id="g5418" />
      <g
         id="g5420" />
      <g
         id="g5422" />
      <g
         id="g5424" />
      <g
         id="g5426" />
      <g
         id="g5428" />
      <g
         id="g5430" />
      <g
         id="g5432" />
      <g
         id="g5434" />
      <g
         id="g5436" />
    </g>
    <g
       id="g5465-4"
       transform="matrix(0.27429568,0,0,0.27429568,62.325018,252.60977)"
       inkscape:export-xdpi="1000"
       inkscape:export-ydpi="1000">
      <g
         id="g5406-8"
         transform="matrix(0.27497104,0.2312576,-0.2312576,0.27497104,-174.87535,49.099922)">
        <path
           id="path5398-7"
           d="M 54.615,19.123 C 47.372,11.879 37.725,7.89 27.454,7.89 17.183,7.89 7.537,11.878 0.293,19.123 c -0.391,0.391 -0.391,1.023 0,1.414 0.391,0.391 1.023,0.391 1.414,0 6.866,-6.867 16.01,-10.648 25.747,-10.648 9.737,0 18.881,3.781 25.747,10.647 0.195,0.195 0.451,0.293 0.707,0.293 0.256,0 0.512,-0.098 0.707,-0.293 0.391,-0.39 0.391,-1.023 0,-1.413 z"
           inkscape:connector-curvature="0" />
        <path
           id="path5400-1"
           d="m 6.171,25 c -0.391,0.391 -0.391,1.023 0,1.414 0.195,0.195 0.451,0.293 0.707,0.293 0.256,0 0.512,-0.098 0.707,-0.293 10.955,-10.956 28.781,-10.956 39.737,0 0.391,0.391 1.023,0.391 1.414,0 0.391,-0.391 0.391,-1.023 0,-1.414 C 37.002,13.266 17.907,13.264 6.171,25 Z"
           inkscape:connector-curvature="0" />
        <path
           id="path5402-7"
           d="m 27.454,24.508 c -5.825,0 -11.295,2.263 -15.404,6.371 -0.391,0.391 -0.391,1.023 0,1.414 0.391,0.391 1.023,0.391 1.414,0 3.731,-3.73 8.699,-5.785 13.99,-5.785 5.291,0 10.259,2.055 13.99,5.785 0.195,0.195 0.451,0.293 0.707,0.293 0.256,0 0.512,-0.098 0.707,-0.293 0.391,-0.391 0.391,-1.023 0,-1.414 -4.108,-4.108 -9.579,-6.371 -15.404,-6.371 z"
           inkscape:connector-curvature="0" />
      </g>
      <g
         id="g5408-7" />
      <g
         id="g5410-2" />
      <g
         id="g5412-2" />
      <g
         id="g5414-6" />
      <g
         id="g5416-1" />
      <g
         id="g5418-0" />
      <g
         id="g5420-6" />
      <g
         id="g5422-1" />
      <g
         id="g5424-5" />
      <g
         id="g5426-9" />
      <g
         id="g5428-4" />
      <g
         id="g5430-9" />
      <g
         id="g5432-0" />
      <g
         id="g5434-9" />
      <g
         id="g5436-1" />
    </g>
    <g
       id="g5465-4-6"
       transform="matrix(-0.27429568,0,0,0.27429568,-6.1275355,257.84698)"
       inkscape:export-xdpi="1000"
       inkscape:export-ydpi="1000">
      <g
         id="g5406-8-7"
         transform="matrix(0.27497104,0.2312576,-0.2312576,0.27497104,-174.87535,49.099922)">
        <path
           id="path5398-7-3"
           d="M 54.615,19.123 C 47.372,11.879 37.725,7.89 27.454,7.89 17.183,7.89 7.537,11.878 0.293,19.123 c -0.391,0.391 -0.391,1.023 0,1.414 0.391,0.391 1.023,0.391 1.414,0 6.866,-6.867 16.01,-10.648 25.747,-10.648 9.737,0 18.881,3.781 25.747,10.647 0.195,0.195 0.451,0.293 0.707,0.293 0.256,0 0.512,-0.098 0.707,-0.293 0.391,-0.39 0.391,-1.023 0,-1.413 z"
           inkscape:connector-curvature="0" />
        <path
           id="path5400-1-6"
           d="m 6.171,25 c -0.391,0.391 -0.391,1.023 0,1.414 0.195,0.195 0.451,0.293 0.707,0.293 0.256,0 0.512,-0.098 0.707,-0.293 10.955,-10.956 28.781,-10.956 39.737,0 0.391,0.391 1.023,0.391 1.414,0 0.391,-0.391 0.391,-1.023 0,-1.414 C 37.002,13.266 17.907,13.264 6.171,25 Z"
           inkscape:connector-curvature="0" />
        <path
           id="path5402-7-5"
           d="m 27.454,24.508 c -5.825,0 -11.295,2.263 -15.404,6.371 -0.391,0.391 -0.391,1.023 0,1.414 0.391,0.391 1.023,0.391 1.414,0 3.731,-3.73 8.699,-5.785 13.99,-5.785 5.291,0 10.259,2.055 13.99,5.785 0.195,0.195 0.451,0.293 0.707,0.293 0.256,0 0.512,-0.098 0.707,-0.293 0.391,-0.391 0.391,-1.023 0,-1.414 -4.108,-4.108 -9.579,-6.371 -15.404,-6.371 z"
           inkscape:connector-curvature="0" />
      </g>
      <g
         id="g5408-7-6" />
      <g
         id="g5410-2-3" />
      <g
         id="g5412-2-9" />
      <g
         id="g5414-6-4" />
      <g
         id="g5416-1-8" />
      <g
         id="g5418-0-1" />
      <g
         id="g5420-6-2" />
      <g
         id="g5422-1-9" />
      <g
         id="g5424-5-3" />
      <g
         id="g5426-9-9" />
      <g
         id="g5428-4-0" />
      <g
         id="g5430-9-8" />
      <g
         id="g5432-0-8" />
      <g
         id="g5434-9-5" />
      <g
         id="g5436-1-0" />
    </g>
    <g
       id="g5465-4-9"
       transform="matrix(0.27429568,0,0,0.27429568,81.297583,263.45197)"
       inkscape:export-xdpi="1000"
       inkscape:export-ydpi="1000">
      <g
         id="g5406-8-6"
         transform="matrix(0.27497104,0.2312576,-0.2312576,0.27497104,-174.87535,49.099922)">
        <path
           id="path5398-7-38"
           d="M 54.615,19.123 C 47.372,11.879 37.725,7.89 27.454,7.89 17.183,7.89 7.537,11.878 0.293,19.123 c -0.391,0.391 -0.391,1.023 0,1.414 0.391,0.391 1.023,0.391 1.414,0 6.866,-6.867 16.01,-10.648 25.747,-10.648 9.737,0 18.881,3.781 25.747,10.647 0.195,0.195 0.451,0.293 0.707,0.293 0.256,0 0.512,-0.098 0.707,-0.293 0.391,-0.39 0.391,-1.023 0,-1.413 z"
           inkscape:connector-curvature="0" />
        <path
           id="path5400-1-5"
           d="m 6.171,25 c -0.391,0.391 -0.391,1.023 0,1.414 0.195,0.195 0.451,0.293 0.707,0.293 0.256,0 0.512,-0.098 0.707,-0.293 10.955,-10.956 28.781,-10.956 39.737,0 0.391,0.391 1.023,0.391 1.414,0 0.391,-0.391 0.391,-1.023 0,-1.414 C 37.002,13.266 17.907,13.264 6.171,25 Z"
           inkscape:connector-curvature="0" />
        <path
           id="path5402-7-6"
           d="m 27.454,24.508 c -5.825,0 -11.295,2.263 -15.404,6.371 -0.391,0.391 -0.391,1.023 0,1.414 0.391,0.391 1.023,0.391 1.414,0 3.731,-3.73 8.699,-5.785 13.99,-5.785 5.291,0 10.259,2.055 13.99,5.785 0.195,0.195 0.451,0.293 0.707,0.293 0.256,0 0.512,-0.098 0.707,-0.293 0.391,-0.391 0.391,-1.023 0,-1.414 -4.108,-4.108 -9.579,-6.371 -15.404,-6.371 z"
           inkscape:connector-curvature="0" />
      </g>
      <g
         id="g5408-7-1" />
      <g
         id="g5410-2-1" />
      <g
         id="g5412-2-5" />
      <g
         id="g5414-6-9" />
      <g
         id="g5416-1-84" />
      <g
         id="g5418-0-8" />
      <g
         id="g5420-6-1" />
      <g
         id="g5422-1-0" />
      <g
         id="g5424-5-30" />
      <g
         id="g5426-9-4" />
      <g
         id="g5428-4-4" />
      <g
         id="g5430-9-4" />
      <g
         id="g5432-0-4" />
      <g
         id="g5434-9-7" />
      <g
         id="g5436-1-6" />
    </g>
    <g
       id="g5465-4-3"
       transform="matrix(0.27429568,0,0,0.27429568,80.627413,243.04249)"
       inkscape:export-xdpi="1000"
       inkscape:export-ydpi="1000">
      <g
         id="g5406-8-1"
         transform="matrix(0.27497104,0.2312576,-0.2312576,0.27497104,-174.87535,49.099922)">
        <path
           id="path5398-7-7"
           d="M 54.615,19.123 C 47.372,11.879 37.725,7.89 27.454,7.89 17.183,7.89 7.537,11.878 0.293,19.123 c -0.391,0.391 -0.391,1.023 0,1.414 0.391,0.391 1.023,0.391 1.414,0 6.866,-6.867 16.01,-10.648 25.747,-10.648 9.737,0 18.881,3.781 25.747,10.647 0.195,0.195 0.451,0.293 0.707,0.293 0.256,0 0.512,-0.098 0.707,-0.293 0.391,-0.39 0.391,-1.023 0,-1.413 z"
           inkscape:connector-curvature="0" />
        <path
           id="path5400-1-59"
           d="m 6.171,25 c -0.391,0.391 -0.391,1.023 0,1.414 0.195,0.195 0.451,0.293 0.707,0.293 0.256,0 0.512,-0.098 0.707,-0.293 10.955,-10.956 28.781,-10.956 39.737,0 0.391,0.391 1.023,0.391 1.414,0 0.391,-0.391 0.391,-1.023 0,-1.414 C 37.002,13.266 17.907,13.264 6.171,25 Z"
           inkscape:connector-curvature="0" />
        <path
           id="path5402-7-62"
           d="m 27.454,24.508 c -5.825,0 -11.295,2.263 -15.404,6.371 -0.391,0.391 -0.391,1.023 0,1.414 0.391,0.391 1.023,0.391 1.414,0 3.731,-3.73 8.699,-5.785 13.99,-5.785 5.291,0 10.259,2.055 13.99,5.785 0.195,0.195 0.451,0.293 0.707,0.293 0.256,0 0.512,-0.098 0.707,-0.293 0.391,-0.391 0.391,-1.023 0,-1.414 -4.108,-4.108 -9.579,-6.371 -15.404,-6.371 z"
           inkscape:connector-curvature="0" />
      </g>
      <g
         id="g5408-7-17" />
      <g
         id="g5410-2-8" />
      <g
         id="g5412-2-57" />
      <g
         id="g5414-6-41" />
      <g
         id="g5416-1-85" />
      <g
         id="g5418-0-9" />
      <g
         id="g5420-6-7" />
      <g
         id="g5422-1-5" />
      <g
         id="g5424-5-38" />
      <g
         id="g5426-9-8" />
      <g
         id="g5428-4-3" />
      <g
         id="g5430-9-1" />
      <g
         id="g5432-0-89" />
      <g
         id="g5434-9-6" />
      <g
         id="g5436-1-4" />
    </g>
    <g
       id="g5465-4-3-3"
       transform="matrix(-0.27429568,0,0,0.27429568,-9.5392693,229.33463)"
       inkscape:export-xdpi="1000"
       inkscape:export-ydpi="1000">
      <g
         id="g5406-8-1-3"
         transform="matrix(0.27497104,0.2312576,-0.2312576,0.27497104,-174.87535,49.099922)">
        <path
           id="path5398-7-7-3"
           d="M 54.615,19.123 C 47.372,11.879 37.725,7.89 27.454,7.89 17.183,7.89 7.537,11.878 0.293,19.123 c -0.391,0.391 -0.391,1.023 0,1.414 0.391,0.391 1.023,0.391 1.414,0 6.866,-6.867 16.01,-10.648 25.747,-10.648 9.737,0 18.881,3.781 25.747,10.647 0.195,0.195 0.451,0.293 0.707,0.293 0.256,0 0.512,-0.098 0.707,-0.293 0.391,-0.39 0.391,-1.023 0,-1.413 z"
           inkscape:connector-curvature="0" />
        <path
           id="path5400-1-59-8"
           d="m 6.171,25 c -0.391,0.391 -0.391,1.023 0,1.414 0.195,0.195 0.451,0.293 0.707,0.293 0.256,0 0.512,-0.098 0.707,-0.293 10.955,-10.956 28.781,-10.956 39.737,0 0.391,0.391 1.023,0.391 1.414,0 0.391,-0.391 0.391,-1.023 0,-1.414 C 37.002,13.266 17.907,13.264 6.171,25 Z"
           inkscape:connector-curvature="0" />
        <path
           id="path5402-7-62-6"
           d="m 27.454,24.508 c -5.825,0 -11.295,2.263 -15.404,6.371 -0.391,0.391 -0.391,1.023 0,1.414 0.391,0.391 1.023,0.391 1.414,0 3.731,-3.73 8.699,-5.785 13.99,-5.785 5.291,0 10.259,2.055 13.99,5.785 0.195,0.195 0.451,0.293 0.707,0.293 0.256,0 0.512,-0.098 0.707,-0.293 0.391,-0.391 0.391,-1.023 0,-1.414 -4.108,-4.108 -9.579,-6.371 -15.404,-6.371 z"
           inkscape:connector-curvature="0" />
      </g>
      <g
         id="g5408-7-17-0" />
      <g
         id="g5410-2-8-4" />
      <g
         id="g5412-2-57-8" />
      <g
         id="g5414-6-41-8" />
      <g
         id="g5416-1-85-8" />
      <g
         id="g5418-0-9-9" />
      <g
         id="g5420-6-7-7" />
      <g
         id="g5422-1-5-7" />
      <g
         id="g5424-5-38-6" />
      <g
         id="g5426-9-8-4" />
      <g
         id="g5428-4-3-3" />
      <g
         id="g5430-9-1-0" />
      <g
         id="g5432-0-89-3" />
      <g
         id="g5434-9-6-0" />
      <g
         id="g5436-1-4-9" />
    </g>
    <g
       id="g5465-4-3-2"
       transform="matrix(0.27429568,0,0,0.27429568,65.43507,230.10486)"
       inkscape:export-xdpi="1000"
       inkscape:export-ydpi="1000">
      <g
         id="g5406-8-1-5"
         transform="matrix(0.27497104,0.2312576,-0.2312576,0.27497104,-174.87535,49.099922)">
        <path
           id="path5398-7-7-4"
           d="M 54.615,19.123 C 47.372,11.879 37.725,7.89 27.454,7.89 17.183,7.89 7.537,11.878 0.293,19.123 c -0.391,0.391 -0.391,1.023 0,1.414 0.391,0.391 1.023,0.391 1.414,0 6.866,-6.867 16.01,-10.648 25.747,-10.648 9.737,0 18.881,3.781 25.747,10.647 0.195,0.195 0.451,0.293 0.707,0.293 0.256,0 0.512,-0.098 0.707,-0.293 0.391,-0.39 0.391,-1.023 0,-1.413 z"
           inkscape:connector-curvature="0" />
        <path
           id="path5400-1-59-0"
           d="m 6.171,25 c -0.391,0.391 -0.391,1.023 0,1.414 0.195,0.195 0.451,0.293 0.707,0.293 0.256,0 0.512,-0.098 0.707,-0.293 10.955,-10.956 28.781,-10.956 39.737,0 0.391,0.391 1.023,0.391 1.414,0 0.391,-0.391 0.391,-1.023 0,-1.414 C 37.002,13.266 17.907,13.264 6.171,25 Z"
           inkscape:connector-curvature="0" />
        <path
           id="path5402-7-62-5"
           d="m 27.454,24.508 c -5.825,0 -11.295,2.263 -15.404,6.371 -0.391,0.391 -0.391,1.023 0,1.414 0.391,0.391 1.023,0.391 1.414,0 3.731,-3.73 8.699,-5.785 13.99,-5.785 5.291,0 10.259,2.055 13.99,5.785 0.195,0.195 0.451,0.293 0.707,0.293 0.256,0 0.512,-0.098 0.707,-0.293 0.391,-0.391 0.391,-1.023 0,-1.414 -4.108,-4.108 -9.579,-6.371 -15.404,-6.371 z"
           inkscape:connector-curvature="0" />
      </g>
      <g
         id="g5408-7-17-9" />
      <g
         id="g5410-2-8-46" />
      <g
         id="g5412-2-57-9" />
      <g
         id="g5414-6-41-2" />
      <g
         id="g5416-1-85-2" />
      <g
         id="g5418-0-9-4" />
      <g
         id="g5420-6-7-77" />
      <g
         id="g5422-1-5-5" />
      <g
         id="g5424-5-38-4" />
      <g
         id="g5426-9-8-8" />
      <g
         id="g5428-4-3-1" />
      <g
         id="g5430-9-1-2" />
      <g
         id="g5432-0-89-8" />
      <g
         id="g5434-9-6-9" />
      <g
         id="g5436-1-4-3" />
    </g>
    <rect
       style="opacity:1;fill:none;fill-opacity:0.78823529;stroke:#000000;stroke-width:0.47332865;stroke-linejoin:round;stroke-miterlimit:4;stroke-dasharray:none;stroke-dashoffset:0;stroke-opacity:1;paint-order:stroke fill markers"
       id="rect5854"
       width="9.5266714"
       height="9.5266714"
       x="70.236664"
       y="262.23666"
       inkscape:export-xdpi="1000"
       inkscape:export-ydpi="1000" />
    <path
       style="fill:none;stroke:#000000;stroke-width:0.5;stroke-linecap:butt;stroke-linejoin:miter;stroke-miterlimit:4;stroke-dasharray:none;stroke-opacity:1"
       d="M 70.284871,266.9412 59.589349,267"
       id="path5856"
       inkscape:connector-curvature="0"
       inkscape:export-xdpi="1000"
       inkscape:export-ydpi="1000" />
    <path
       style="fill:none;stroke:#000000;stroke-width:0.5;stroke-linecap:butt;stroke-linejoin:miter;stroke-miterlimit:4;stroke-dasharray:none;stroke-opacity:1"
       d="M 90.585075,266.9412 79.889553,267"
       id="path5856-6"
       inkscape:connector-curvature="0"
       inkscape:export-xdpi="1000"
       inkscape:export-ydpi="1000" />
    <text
       xml:space="preserve"
       style="font-style:normal;font-weight:normal;font-size:7.83559275px;line-height:1.25;font-family:sans-serif;letter-spacing:0px;word-spacing:0px;fill:#000000;fill-opacity:1;stroke:none;stroke-width:0.19588982"
       x="69.928284"
       y="269.59894"
       id="text5875"
       inkscape:export-xdpi="1000"
       inkscape:export-ydpi="1000"><tspan
         sodipodi:role="line"
         id="tspan5873"
         x="69.928284"
         y="269.59894"
         style="stroke-width:0.19588982">PE</tspan></text>
    <text
       xml:space="preserve"
       style="font-style:normal;font-weight:normal;font-size:8.91885471px;line-height:1.25;font-family:sans-serif;letter-spacing:0px;word-spacing:0px;fill:#000000;fill-opacity:1;stroke:none;stroke-width:0.22297136"
       x="88.359505"
       y="305.87372"
       id="text5879"
       inkscape:export-xdpi="1000"
       inkscape:export-ydpi="1000"><tspan
         sodipodi:role="line"
         id="tspan5877"
         x="88.359505"
         y="305.87372"
         style="stroke-width:0.22297136">internet</tspan></text>
    <text
       xml:space="preserve"
       style="font-style:normal;font-weight:normal;font-size:8.8632431px;line-height:1.25;font-family:sans-serif;text-align:center;letter-spacing:0px;word-spacing:0px;text-anchor:middle;fill:#000000;fill-opacity:1;stroke:none;stroke-width:0.22158107"
       x="29.969706"
       y="303.79544"
       id="text5883"
       inkscape:export-xdpi="1000"
       inkscape:export-ydpi="1000"><tspan
         sodipodi:role="line"
         id="tspan5881"
         x="29.969706"
         y="303.79544"
         style="text-align:center;text-anchor:middle;stroke-width:0.22158107">Red</tspan><tspan
         sodipodi:role="line"
         x="29.969706"
         y="314.87448"
         style="text-align:center;text-anchor:middle;stroke-width:0.22158107"
         id="tspan5885">Pública</tspan></text>
  </g>
</svg>
